,mean_on_power,std_on_power
real,399.3970080843176,754.8287100159995
kettle,2658.3972088400164,488.6781422772787
microwave,1192.7143537883123,328.30539767299217
dishwasher,1071.6829076988033,1076.5596956357804
apparent,387.80565467427743,731.8661172128066
