{
 "_comment": "define rules for best available measures",
 "_allappliances":"microwaveSimple, microwaveOven, microwaveGrillAndOven, microwave, microwaveGrill, Kettle, dishwasher",

 "rules": [ 
     {"appliance":"microwave.*", "homes":".*", "min_on_duration":"10", "min_off_duration":"15", "max_on_duration":"10000", "on_power_threshold":"200" },
     {"appliance":"dishwasher", "homes":".*", "min_on_duration":"600", "min_off_duration":"400", "max_on_duration":"15000", "on_power_threshold":"50" },
     {"appliance":"kettle", "homes":".*", "min_on_duration":"10", "min_off_duration":"10", "max_on_duration":"600", "on_power_threshold":"1000" }
  ]
}